{
  "name": "klubduch-icons",
  "css_prefix_text": "icon-",
  "css_use_suffix": false,
  "hinting": true,
  "units_per_em": 1000,
  "ascent": 850,
  "glyphs": [
    {
      "uid": "6740ba8eb5821e811dc0325b5b8fd6b5",
      "css": "user",
      "code": 59394,
      "src": "custom_icons",
      "selected": true,
      "svg": {
        "path": "M398.4 21.9C285.9 73.4 250 151.6 250 342.2L250 478.1 198.4 503.1C120.3 540.6 45.3 609.4 21.9 667.2-4.7 731.3-7.8 954.7 18.8 981.3 45.3 1007.8 954.7 1007.8 981.3 981.3 1007.8 954.7 1004.7 731.3 978.1 667.2 954.7 610.9 879.7 540.6 803.1 503.1L753.1 479.7 746.9 318.8C742.2 146.9 726.6 109.4 637.5 42.2 584.4 3.1 460.9-7.8 398.4 21.9ZM585.9 164.1C621.9 198.4 625 214.1 625 343.8 625 473.4 621.9 489.1 585.9 523.4 562.5 548.4 529.7 562.5 500 562.5 470.3 562.5 437.5 548.4 414.1 523.4 378.1 489.1 375 473.4 375 343.8 375 214.1 378.1 198.4 414.1 164.1 437.5 139.1 470.3 125 500 125 529.7 125 562.5 139.1 585.9 164.1ZM354.7 635.9C401.6 671.9 428.1 679.7 500 679.7 571.9 679.7 598.4 671.9 645.3 635.9 698.4 595.3 704.7 593.8 754.7 615.6 835.9 648.4 875 709.4 875 798.4L875 875 500 875 125 875 125 798.4C125 710.9 164.1 650 240.6 615.6 267.2 604.7 290.6 595.3 293.8 593.8 296.9 593.8 325 612.5 354.7 635.9Z",
        "width": 1000
      },
      "search": [
        "01"
      ]
    },
    {
      "uid": "1142b3098493ade27862bb5be7301fb9",
      "css": "lock",
      "code": 59393,
      "src": "custom_icons",
      "selected": true,
      "svg": {
        "path": "M304.7 15.6C232.8 45.3 196.9 106.3 190.6 210.9L184.4 312.5 132.8 312.5C104.7 312.5 65.6 326.6 45.3 342.2 9.4 370.3 7.8 381.3 3.1 618.8-3.1 887.5 1.6 923.4 46.9 968.8 76.6 998.4 100 1000 500 1000L923.4 1000 960.9 960.9C1000 923.4 1000 918.8 1000 656.3 1000 393.8 1000 389.1 960.9 351.6 935.9 325 906.3 312.5 867.2 312.5L812.5 312.5 812.5 225C812.5 125 782.8 64.1 718.8 25 684.4 6.2 635.9 0 504.7 1.6 412.5 1.6 321.9 7.8 304.7 15.6ZM648.4 164.1C675 189.1 687.5 218.8 687.5 257.8L687.5 312.5 500 312.5 312.5 312.5 312.5 273.4C312.5 218.8 342.2 162.5 381.3 143.8 398.4 134.4 457.8 126.6 512.5 126.6 596.9 125 615.6 129.7 648.4 164.1ZM856.3 456.3C882.8 482.8 882.8 829.7 856.3 856.3 829.7 882.8 170.3 882.8 143.8 856.3 117.2 829.7 117.2 482.8 143.8 456.3 170.3 429.7 829.7 429.7 856.3 456.3ZM401.6 528.1C367.2 567.2 368.8 603.1 404.7 628.1 425 642.2 437.5 671.9 440.6 717.2 450 845.3 550 846.9 559.4 721.9 562.5 676.6 573.4 651.6 595.3 640.6 629.7 621.9 635.9 548.4 606.3 518.8 575 487.5 431.3 495.3 401.6 528.1Z",
        "width": 1000
      },
      "search": [
        "02"
      ]
    },
    {
      "uid": "74a7ca8ff501c30c8ba453ee11f9fb65",
      "css": "check",
      "code": 59392,
      "src": "custom_icons",
      "selected": true,
      "svg": {
        "path": "M776.6 57.8C756.3 90.6 684.4 204.7 617.2 312.5 550 420.3 478.1 534.4 457.8 568.8L418.8 628.1 368.8 545.3 318.8 460.9 162.5 460.9C17.2 460.9 7.8 462.5 9.4 492.2 9.4 509.4 78.1 631.3 162.5 762.5L315.6 1000 403.1 1000 492.2 998.4 810.9 523.4C1017.2 217.2 1126.6 40.6 1120.3 25 1112.5 4.7 1082.8 0 960.9 0L812.5 0 776.6 57.8Z",
        "width": 1125
      },
      "search": [
        "03"
      ]
    },
    {
      "uid": "cf886026e6c2d17e3c7d5abacd364502",
      "css": "calendar",
      "code": 59398,
      "src": "custom_icons",
      "selected": true,
      "svg": {
        "path": "M74.2 10.9C42.2 25 9.4 64.8 3.9 96.1 1.6 110.2 0 300.8 1.6 521.1 3.9 910.9 4.7 921.1 20.3 942.2 28.9 953.9 46.1 971.1 57.8 979.7 78.9 996.1 87.5 996.1 500 996.1 912.5 996.1 921.1 996.1 942.2 979.7 953.9 971.1 971.1 953.9 979.7 942.2 996.1 921.1 996.1 912.5 996.1 500 996.1 87.5 996.1 78.9 979.7 57.8 957.8 27.3 930.5 8.6 900.8 3.1L875-2.3 875 73.4C875 143.8 873.4 150.8 855.5 168 837.5 186.7 831.3 187.5 750 187.5 668.8 187.5 662.5 186.7 644.5 168 626.6 150.8 625 143 625 74.2L625 0 500 0 375 0 375 74.2C375 143 373.4 150.8 355.5 168 337.5 186.7 331.3 187.5 250 187.5 168.8 187.5 162.5 186.7 144.5 168 126.6 150.8 125 143 125 74.2 125-7.8 122.7-10.2 74.2 10.9ZM855.5 332L875 350.8 875 593.8 875 836.7 855.5 855.5 836.7 875 500 875 163.3 875 144.5 855.5 125 836.7 125 593.8 125 350.8 144.5 332 163.3 312.5 500 312.5 836.7 312.5 855.5 332ZM250 500L250 562.5 312.5 562.5 375 562.5 375 500 375 437.5 312.5 437.5 250 437.5 250 500ZM437.5 500L437.5 562.5 500 562.5 562.5 562.5 562.5 500 562.5 437.5 500 437.5 437.5 437.5 437.5 500ZM625 500L625 562.5 687.5 562.5 750 562.5 750 500 750 437.5 687.5 437.5 625 437.5 625 500ZM250 687.5L250 750 312.5 750 375 750 375 687.5 375 625 312.5 625 250 625 250 687.5ZM437.5 687.5L437.5 750 500 750 562.5 750 562.5 687.5 562.5 625 500 625 437.5 625 437.5 687.5ZM625 687.5L625 750 687.5 750 750 750 750 687.5 750 625 687.5 625 625 625 625 687.5ZM187.5 62.5L187.5 125 250 125 312.5 125 312.5 62.5 312.5 0 250 0 187.5 0 187.5 62.5ZM687.5 62.5L687.5 125 750 125 812.5 125 812.5 62.5 812.5 0 750 0 687.5 0 687.5 62.5Z",
        "width": 1000
      },
      "search": [
        "04"
      ]
    },
    {
      "uid": "7ba781d9df505dc9fc5b1585560d6f1b",
      "css": "ext-link",
      "code": 59403,
      "src": "custom_icons",
      "selected": true,
      "svg": {
        "path": "M99.2 27.1C58.9 48.1 27.1 86 10.9 129.5-2.3 166.7-4.7 816.3 7.8 862 20.2 905.4 61.2 954.3 104.7 976L142.6 996.1 466.7 998.4C672.1 1000 806.2 997.7 834.9 993 909.3 979.1 965.9 928.7 984.5 859.7 989.1 843.4 991.5 774.4 990.7 705.4L988.4 580.6 927.9 625.6 868.2 669.8 868.2 749.6C868.2 821.7 866.7 830.2 849.6 850.4L831 872.1 496.1 872.1 161.2 872.1 142.6 850.4 124 828.7 124 500.8C124 180.6 124 172.1 140.3 151.9L155.8 131.8 295.3 131.8 434.1 131.8 434.1 110.1C434.9 98.4 441.1 70.5 448.8 48.1L462.8 7.8 299.2 7.8C141.1 8.5 134.1 9.3 99.2 27.1ZM636.4 89.9C624.8 105.4 620.2 121.7 620.2 151.9L620.2 193.8 586.8 193.8C496.1 193.8 393 241.9 314 321.7 210.9 425.6 165.9 570.5 194.6 707L203.9 747.3 218.6 710.1C276.7 562 441.9 441.9 586.8 441.9L620.2 441.9 620.2 479.8C620.2 509.3 624.8 523.3 638 539.5 672.1 579.1 689.9 572.1 841.1 458.1 916.3 402.3 981.4 347.3 986 336.4 1003.1 299.2 987.6 280.6 845 172.9 728.7 84.5 705.4 69.8 680.6 69.8 658.9 69.8 648.1 74.4 636.4 89.9Z",
        "width": 992
      },
      "search": [
        "05"
      ]
    },
    {
      "uid": "1ef51c27124349ad159d8fe6118f13d0",
      "css": "camera",
      "code": 59412,
      "src": "custom_icons",
      "selected": true,
      "svg": {
        "path": "M543.8 19.5C525 36.7 510.2 64.8 478.1 142.2L468.8 164.1 273.4 164.1C56.3 164.1 33.6 168 12.5 210.2 1.6 230.5 0 282 0 590.6L0 946.9 26.6 973.4 53.1 1000 668 1000 1282.8 1000 1309.4 973.4 1335.9 946.9 1335.9 590.6C1335.9 282 1334.4 230.5 1323.4 210.2 1302.3 168 1279.7 164.1 1062.5 164.1L867.2 164.1 857.8 142.2C827.3 68.8 812.5 40.6 793 21.1 771.9 0 770.3 0 668 0 568.8 0 564.1 0.8 543.8 19.5ZM781.3 270.3C881.3 309.4 955.5 388.3 985.2 485.9 1033.6 644.5 962.5 807 813.3 881.3 756.3 909.4 752.3 910.2 668 910.2 583.6 910.2 579.7 909.4 522.7 881.3 410.9 825.8 343.8 725.8 337.5 604.7 328.1 434.4 433.6 296.9 605.5 254.7 637.5 246.9 746.9 256.2 781.3 270.3ZM583.6 347.7C546.9 361.7 501.6 393.8 475 425.8 410.9 502.3 401.6 613.3 450 703.9 546.1 879.7 801.6 872.7 891.4 691.4 918 637.5 924.2 570.3 907.8 510.9 888.3 440.6 822.7 373.4 749.2 347.7 708.6 332.8 623.4 333.6 583.6 347.7Z",
        "width": 1336
      },
      "search": [
        "06"
      ]
    },
    {
      "uid": "d5752cb5d7d47f1dec4b0acfd70614e6",
      "css": "pencil",
      "code": 59413,
      "src": "custom_icons",
      "selected": true,
      "svg": {
        "path": "M738.3 47.7C725 50.8 700 69.5 682 87.5L648.4 121.1 775.8 248.4 903.9 375.8 932.8 343.8C966.4 307 976.6 283.6 976.6 245.3 976.6 206.3 961.7 183.6 893 114.8 820.3 43.8 793 31.2 738.3 47.7ZM364.1 405.5C143.7 626.6 124.2 647.7 132 663.3 137.5 671.9 146.9 679.7 154.7 679.7 161.7 679.7 275 572.7 406.3 441.4L644.5 203.1 625 183.6 605.5 164.1 364.1 405.5ZM443 490.6C185.9 748.4 185.2 749.2 219.5 792.2 231.3 807 242.2 812.5 264.1 812.5 290.6 812.5 305.5 799.2 532.8 572.7L773.4 332.8 732.8 291.4C710.2 268.8 689.8 250 687.5 250 685.2 250 575 358.6 443 490.6ZM578.9 612.5C382 809.4 343 852.3 345.3 868 346.9 881.3 353.1 887.5 367.2 889.1 383.6 890.6 425.8 852.3 623.4 653.9L860.2 417.2 837.5 396.1 815.6 375 578.9 612.5ZM55.5 855.5C36.7 931.3 22.7 994.5 25 996.1 27.3 998.4 154.7 968.8 275 936.7L303.9 929.7 293 903.9C284.4 882.8 277.3 878.1 248.4 873.4 192.2 863.3 150.8 821.1 146.9 767.2 145.3 747.7 139.8 739.1 121.9 730.5 109.4 724.2 96.9 718.8 94.5 718.8 91.4 718.8 74.2 780.5 55.5 855.5Z",
        "width": 1000
      },
      "search": [
        "07"
      ]
    },
    {
      "uid": "234829c98486a2b792bad125c6e5b8a5",
      "css": "blog",
      "code": 59424,
      "src": "custom_icons",
      "selected": false,
      "svg": {
        "path": "M154 3.7C84.1 16.6 24.1 72 6.6 140.4 0.1 165.9-0.1 180.2 0.4 420.7 0.9 623.5 1.2 648.8 3.4 659.4 11.5 699.1 26.9 727.8 56 756.9 85 785.8 113.6 801.3 153.4 809.4 164.2 811.7 191.2 812 425.9 812.4L686.4 812.9 779.6 906.1 872.8 999.3 872.8 906.3 872.8 813.3 915.9 812.4C962.1 811.7 976.3 809.9 996.9 802.8 1050.3 784.6 1095.7 738.6 1113.8 684.4 1124.1 653.6 1123.5 668.9 1123.5 405.7 1123.5 150.7 1123.8 160.2 1115.7 133.2 1105.2 97.8 1082.6 65.3 1051.8 41.3 1029.5 24 1007.9 13.3 979 5.7L966.3 2.2 565.9 1.9C231.1 1.8 163.6 2.1 154 3.7ZM946 127.2C958.8 129 972.3 135.9 982 145.5 991.3 154.9 996.1 163.8 998.4 175.9 1000.6 187.6 1000.6 617.4 998.5 632.5 994.3 660.9 972.8 683.2 946 687.1 933.4 689.1 192.5 689.1 180.1 687.3 156.6 683.8 138.5 668.6 128.9 644.2L125 634 124.6 411.7C124.3 270.5 124.7 185.9 125.6 179.8 127.7 166.8 133.5 155.5 143.4 145.7 152.7 136.2 166.6 129 178.6 127.2 190.1 125.6 934.4 125.6 946 127.2ZM205.1 292.7L205.1 354.8 562.1 354.8 919.2 354.8 919.2 292.7 919.2 230.5 562.1 230.5 205.1 230.5 205.1 292.7ZM205.1 518.7L205.1 580.8 562.1 580.8 919.2 580.8 919.2 518.7 919.2 456.6 562.1 456.6 205.1 456.6 205.1 518.7Z",
        "width": 1124
      },
      "search": [
        "08"
      ]
    },
    {
      "uid": "f049056b1a1513306c85b1aa4033c05d",
      "css": "info",
      "code": 59425,
      "src": "custom_icons",
      "selected": true,
      "svg": {
        "path": "M166.7 1.5C125.3 7.2 87.1 26.9 56.7 58.5 29.4 86.8 12.4 119.2 3.9 159.2-0.5 180-0.5 218.9 3.9 239.5 16.3 297 48.8 343.9 96.1 372.2 171.4 417.4 266.8 403.5 327.1 338.6 351.8 311.8 368.7 279.3 377.1 242 379.9 229.7 380.3 224.2 380.3 199.3 380.3 176.6 379.7 168.4 377.7 159.2 373.6 140.4 369 126.8 360.5 109.5 333.9 54.3 283.4 14.7 225.6 3.4 212 0.7 179.7-0.3 166.7 1.5ZM212 59.3C222.9 63.8 229.9 74.4 229.9 86.4 229.9 103.7 216.6 115.6 197.4 115.6 181.6 115.6 160.8 124.5 147.1 137 130.2 152.2 119.2 174.8 117.6 197 116.5 213.1 114.6 218.9 108.2 225.2 101.9 231.4 92.4 234.8 85.2 233.3 73.3 230.7 63.8 220.7 61.8 208.6 60.7 201.5 63.3 178.5 66.7 165.4 78.2 121.6 110.5 84.2 151 67.6 173.7 58.4 200.8 54.7 212 59.3ZM31.8 412.4C32.4 415.6 46.5 533.2 63.3 673.5 80.1 813.7 94.6 931.7 95.4 935.6 101.6 967.1 135.2 993.2 176.2 998.6 225.9 1005.2 275.9 977.1 285.7 937.3 287.3 930.5 349.9 411 349.3 409.1 349.1 408.4 346.5 409.9 343.5 412.4 323.9 428.2 292 445.3 266.4 453.6 238.8 462.7 225 464.6 189.8 464.5 162.7 464.5 156.6 464.1 144.2 461.4 105 453.1 64.4 434.1 37.7 411.8L31 406.4 31.8 412.4Z",
        "width": 382
      },
      "search": [
        "09"
      ]
    },
    {
      "uid": "d0de5f33d2d3faa134c5b658ffb3baf7",
      "css": "blog",
      "code": 59426,
      "src": "custom_icons",
      "selected": true,
      "svg": {
        "path": "M97.1 5.4C52.1 17.1 17.9 53 4.8 102.1L0.9 117 0.9 407.1 0.9 697.3 4.8 712.1C18 761.6 52.5 797.5 97.9 809.1 110.7 812.3 119.8 812.5 336.4 812.5L561.8 812.5 685.7 905.4 809.8 998.2 810.7 905.7 811.6 813.4 854.5 812.3C888.8 811.6 899.3 810.7 907.1 808.2 950.9 793.9 982.5 759.5 995.2 712.1L999.1 697.3 999.1 407.1 999.1 117 995.2 102.1C982 52.7 947.5 16.8 902.1 5.2 889.1 2 878.4 1.8 499.3 2 124.8 2 109.3 2.1 97.1 5.4ZM833.4 128.9C847.7 134.1 862.3 148.9 867.9 163.4 871.4 173 872 178.8 873.6 222.3 875.7 285.7 874.1 620.9 871.6 632.9 867.1 653.4 854.3 669.8 836.1 678.2 826.6 682.7 823.6 683 790.2 684.1 743.9 685.7 256.8 685.7 208.9 684.1 173.9 683 171.8 682.7 161.6 678 148 671.8 135.5 658.6 130 645L125.9 634.8 125.9 403.6 125.9 172.3 131.8 160.4C138.8 146.1 151.6 133.9 164.8 128.7 173.9 125.2 178.6 125.2 498.6 125.2L823 125 833.4 128.9ZM250 279.5L250 310.7 499.1 310.7 748.2 310.7 748.2 279.5 748.2 248.2 499.1 248.2 250 248.2 250 279.5ZM250 404.5L250 435.7 499.1 435.7 748.2 435.7 748.2 404.5 748.2 373.2 499.1 373.2 250 373.2 250 404.5ZM250 529.5L250 560.7 499.1 560.7 748.2 560.7 748.2 529.5 748.2 498.2 499.1 498.2 250 498.2 250 529.5Z",
        "width": 1000
      },
      "search": [
        "08-(1)"
      ]
    },
    {
      "uid": "8141eb7abf1bb703f318be2aafc870c1",
      "css": "pin",
      "code": 59429,
      "src": "custom_icons",
      "selected": true,
      "svg": {
        "path": "M273.9 0.7C199.5 6.3 138.4 33.7 87.5 84.2 25 146.4-8.1 238.2 1.7 322.4 11.6 407.5 63.7 536.8 157.7 709.9 165.6 724.5 172.3 736.8 172.5 737.1 172.8 737.5 167.4 739.3 160.6 741.1 83.9 760.9 32.9 799.3 22.6 845.1 15.8 875.5 26.6 905.9 53.3 931.5 88.7 965.3 147.6 987.8 225.5 997.3 250.5 1000.3 326.2 1000.3 351.2 997.3 451.4 985.1 521.8 950.3 546.8 900.5 561 872.3 558.5 840.7 539.7 812.9 519.5 783.2 472.5 755.8 416 741.1L403.7 737.8 407.8 730.2C511.1 542.6 566.6 406 575.7 316.6 579.1 282.4 573.4 236.6 561 200.1 525 93.7 433.3 17 325.3 3 311.3 1.2 283.7 0 273.9 0.7ZM323.5 78.8C347.8 83.4 364.6 89.2 386.3 100.5 418 116.8 446.9 143.5 467.4 174.7 496.3 219.3 508.9 277.4 500.1 327 485.2 411 422.3 554.4 323.3 730.1 301.5 768.6 289 790.1 288.4 790.1 286.7 790.1 234.5 697 207.4 645.9 133.2 506 85.4 387.9 75.7 321 68.9 273.5 81.5 217 108.4 175.9 123.4 153.1 145.6 129.6 166.1 115.1 193.1 96 226.9 82.5 259.5 77.9 273.5 75.8 310.6 76.4 323.5 78.8ZM247.2 865.1C266.1 896.4 281.9 922.8 282.4 923.8 283.7 927.2 231.5 923.1 203 917.4 152.2 907.6 113 890.3 97.8 871 91.5 863.1 95 854.9 109.3 844.2 119.5 836.6 143.8 824.6 159.7 819.4 175.2 814.3 204.6 807.4 209.2 807.7 212.5 808 214.8 811.5 247.2 865.1ZM388.4 811.5C427.6 820.3 467.5 839.4 478.7 854.8 483.9 862.1 483.4 865.7 476.1 873.7 451.4 900.7 385 921.2 311 924.6 296.4 925.3 293.8 925.1 294.3 923.8 294.9 922.4 357.7 818.1 363 809.8 365.1 806.6 367.1 806.7 388.4 811.5ZM270.5 143.1C236.4 147.8 207.6 162.2 183.4 186.7 155.1 215.3 140.6 248.7 138.9 288.9 136.8 335.3 153.7 377.4 187.3 409.2 207.3 428.1 233.7 441.6 261.6 447.2 275.2 449.8 301.5 449.8 315.1 447.2 357.6 438.8 394.3 412.8 416.8 375.2 430.3 352.6 438.3 323.2 438.3 295.7 438.3 222.1 386.5 158.4 315.8 144.8 303.9 142.4 281.2 141.6 270.5 143.1ZM309.8 212.2C346.4 221.6 372.5 256.5 372.5 295.8 372.5 335.3 346.6 369.8 309.5 379.6 296.8 383 279.4 383 267 379.6 214.8 365.1 188.9 306 213.3 256.6 231.3 220.2 270.5 202.2 309.8 212.2Z",
        "width": 577
      },
      "search": [
        "10"
      ]
    },
    {
      "uid": "5fd34efa447a854a408d6558fcc88466",
      "css": "arr-left",
      "code": 59430,
      "src": "custom_icons",
      "selected": true,
      "svg": {
        "path": "M299.6 250.1C135.7 386.9 1.4 499.3 1.2 499.8 1.1 500.4 135.2 612.8 299.3 749.7L597.7 998.8 598.2 807.5 598.6 616.3 1098.6 616.3 1598.6 616.3 1598.6 500 1598.6 383.7 1098.6 383.7 598.6 383.7 598.2 192.5 597.7 1.2 299.6 250.1Z",
        "width": 1599
      },
      "search": [
        "arr-left"
      ]
    },
    {
      "uid": "a3baaa710b05c65d9dd97635d7b5000c",
      "css": "arr-right",
      "code": 59431,
      "src": "custom_icons",
      "selected": true,
      "svg": {
        "path": "M1000 192.7L1000 383.7 500 383.7 0 383.7 0 500 0 616.3 500 616.3 1000 616.3 1000.4 807.5 1000.9 998.8 1299.3 749.7C1463.4 612.8 1597.5 500.4 1597.3 499.8 1597 498.6 1001.8 1.8 1000.7 1.8 1000.4 1.8 1000 87.7 1000 192.7Z",
        "width": 1599
      },
      "search": [
        "arr-right"
      ]
    },
    {
      "uid": "c1e2d292b6e70032316ba4b0035f26a8",
      "css": "carpool",
      "code": 59432,
      "src": "custom_icons",
      "selected": true,
      "svg": {
        "path": "M535.8 2.6C397.2 19.2 287.1 70.7 197.9 160.3 85.7 273.1 16.1 445.1 1.6 645.8-0.3 672.3-0.5 700.3 1.1 743.2L2.1 773.6 112.7 773.6C173.5 773.6 223.1 774.1 223.1 774.8 223 775.6 222 780.5 220.7 785.8 212.4 819.4 217.4 862.4 233.7 896.7 243 916.8 252.1 929.8 267.6 945.8 337.9 1018.2 454.2 1017.6 523.8 944.1 563.8 902.1 580.6 843.8 569.1 787.5 567.8 781.1 566.8 775.9 566.8 775.6 566.8 775.4 635.5 775.2 719.7 775.2L872.6 775.2 870.4 785.3C869.1 791 867.6 803.7 866.9 813.7 863.7 871.8 890.2 928.2 938.1 964.5 952.8 975.7 981.3 989.4 1000.8 994.5 1015.1 998.2 1020.4 998.9 1043.2 998.9 1071.8 999 1082.4 997.2 1105.9 988.8 1188.6 958.5 1237.8 869.2 1218.2 784.4 1217.4 780.8 1216.6 777 1216.6 776.2 1216.6 775.2 1264.3 775.1 1336.3 775.7 1432.1 776.7 1456.2 776.5 1456.8 774.9 1458.8 769.1 1464.7 698.9 1465.3 671.8 1468.2 564.8 1442.3 465 1395 400.5 1376.4 375.1 1347.7 349.2 1317.6 330.5 1276.9 305.2 1212.4 281.3 1159.9 272L1148 269.9 1140.7 259.6C1127.7 241.2 1104.7 214 1085.3 194 1014 119.9 928.5 64.8 835.5 32.9 815.3 25.9 784.7 17.1 774.9 15.3L768.7 14.3 768.7 175.7 768.7 337.1 838.6 337.5 908.6 337.9 787 460.6 665.3 583.2 544.3 460.6 423.3 337.9 493.3 337.5 563.5 337.1 563.5 168.6 563.5 0 559.1 0.2C556.5 0.3 546.1 1.3 535.8 2.6Z",
        "width": 1466
      },
      "search": [
        "carpool"
      ]
    },
    {
      "uid": "776ecd1ca9bb95de5279a54d18309266",
      "css": "doc",
      "code": 59445,
      "src": "custom_icons",
      "selected": true,
      "svg": {
        "path": "M175.1 51.6C158.4 56.1 146.7 66.8 142 81.9 140 88.1 140 92.8 140 499.4 140 867.8 140.2 911.2 141.6 916.5 145.2 930.7 155.5 941.5 170.8 947.3L176.5 949.5 496.5 949.8C710.7 949.9 818.3 949.7 822 949 834.8 946.6 848 937.6 854.3 927 860.4 916.5 860 940.2 860 601.5 860 393.7 859.6 291 858.9 288 857.6 282.5 853.8 274.8 850.2 270.5 848.7 268.7 796.5 220.4 734.1 163.1 632.8 70.1 620 58.6 613.6 55.5 609.7 53.6 604.1 51.5 601.1 51 597.6 50.4 522.4 50 388.1 50.1 210.1 50.1 179.7 50.3 175.1 51.6ZM544 217.3C544 270.9 544.4 299.6 545.1 303.5 547.5 316.8 556.4 328.2 569.2 334.4 573.2 336.4 578.9 338.5 581.9 339 585.2 339.6 621.4 340 676.6 340L766 340 766 601.5 766 863 500 863 234 863 234 500 234 137 389 137 544 137 544 217.3ZM668 224.9C681.5 237.2 693.8 248.6 695.5 250.1L698.5 253 668.7 253 639 253 639 225.8 639 198.7 641.2 200.6C642.4 201.6 654.5 212.6 668 224.9ZM319.5 437C304.8 440 293.1 449.2 286.9 462.5 275.8 486.2 290 514.6 316.5 521.5 321.7 522.8 343.6 523 499.1 523 613.2 523 677.6 522.6 681.1 522 698.6 518.7 713.1 503.9 716.2 486.2 720 463.7 703.8 441.5 680.1 437 673.6 435.8 325.6 435.8 319.5 437ZM316.3 570.5C293.8 576.6 280.1 597.2 283.8 619.2 287 637.8 302.2 652.2 321.5 655 331.1 656.3 668.9 656.3 678.5 655 688.3 653.5 696.9 649.2 703.9 642.2 710.5 635.6 713.3 630.7 715.6 621.7 720.2 604 711 583.8 694.4 574.8 683.1 568.7 694.5 569 499.5 569.1 349.6 569.1 320.7 569.4 316.3 570.5ZM313.5 703.8C302.8 707.5 292.6 716 288 724.9 275.2 750.1 288.7 779.2 316.5 786.6 320.6 787.7 354.2 788 500.1 788 661.4 788 679.2 787.8 684.1 786.4 701.6 781.2 713.4 768.3 716.3 751.3 719.4 733.3 709.1 714.5 691.5 705.9L684.5 702.5 501.5 702.3C329.9 702.1 318.2 702.2 313.5 703.8Z",
        "width": 1000
      },
      "search": [
        "doc"
      ]
    },
    {
      "uid": "b729bb2f59db33601fd4ce9104c385c5",
      "css": "remove",
      "code": 59446,
      "src": "custom_icons",
      "selected": true,
      "svg": {
        "path": "M216.8 97.4L193.2 144.6 204.2 163.5C252.2 246 311.3 343.1 364.7 427.2 377.5 447.4 388.3 464.6 388.6 465.4 389 466.4 385.3 471.3 378.7 478.7 307.6 558.5 226.4 671 159.6 782.2L146 804.9 169.6 852.2 193.2 899.4 211.4 881C292.2 798.7 391.9 688.1 455 610.7 462.9 601 469.7 593 470.1 593 470.5 593 476.8 602.3 484.1 613.7 512.6 658.4 613.5 816.9 653.7 880.5 677.1 917.4 696.5 947.8 696.9 948.3 697.6 949 756.6 858.1 758.4 853.7 759.2 851.5 751.5 834.6 710.3 748.5 671.1 666.6 606 534.9 579.2 483.1 573.6 472.4 569.4 463.2 569.7 462.6 570.8 460.7 603.7 421.2 619.4 403 678.9 333.7 749.6 255.5 833.4 166.1 844.5 154.4 853.4 144.4 853.3 143.9 853.1 143.3 785.2 53.2 783.2 51 781.8 49.4 590.2 248.3 510.4 334.3L501.4 344.1 488.8 325.3C440.9 253.8 371.6 172.7 300.5 104.7 280.1 85.2 250.1 57.8 242.9 52.2L240.4 50.2 216.8 97.4Z",
        "width": 1000
      },
      "search": [
        "remove"
      ]
    },
    {
      "uid": "f35f37df6286924573cf06932fbcd15d",
      "css": "plus-light",
      "code": 59447,
      "src": "custom_icons",
      "selected": true,
      "svg": {
        "path": "M500 275L500 500 275 500 50 500 50 511 50 522 275 522 500 522 500 736 500 950 511 950 522 950 522 736 522 522 736 522 950 522 950 511 950 500 736 500 522 500 522 275 522 50 511 50 500 50 500 275Z",
        "width": 1000
      },
      "search": [
        "plus-light"
      ]
    },
    {
      "uid": "eb6077cad69f72e64a0527f50bd74d4a",
      "css": "diameter",
      "code": 59457,
      "src": "custom_icons",
      "selected": true,
      "svg": {
        "path": "M467 51C364.5 58.9 270.6 98 195.5 164.3 82.4 264 30.5 412.2 57.5 558.4 71.4 633.6 107.5 706.5 159.3 763.9L166 771.2 142.7 795.2C66.1 874.4 67.9 872.4 69.8 874.1 80.8 884.4 155.1 950 155.8 950 156.3 950 175.6 930.5 198.6 906.7 221.6 883 244.3 859.5 249 854.7L257.5 845.9 269.9 853C317.2 880.1 368.3 898.3 422.5 907.4 451.1 912.2 466.2 913.4 500 913.4 533.8 913.4 548.9 912.2 577.5 907.4 765.2 875.9 912.3 733.5 943.5 553 950.7 511 951.4 465.5 945.4 423 938.3 372.2 921 321.7 895.3 276 888.5 264 870.9 237.1 864.2 228.5L860.2 223.5 868.3 215C872.8 210.3 888.9 193.6 904.2 177.8L932 149.2 888.5 110.3C864.5 89 844.5 71.5 844.1 71.5 843.7 71.5 834.9 80.3 824.5 91 814.1 101.7 798.9 117.3 790.7 125.7L775.8 140.8 767.2 134.6C704.7 89.6 628.3 61 547.8 52.4 530.8 50.6 483.2 49.8 467 51ZM525.7 201.1C575.3 205.2 626 221.9 664.8 246.7L670.2 250.1 661.4 259.3C656.6 264.4 566.7 357.3 461.6 465.9L270.6 663.2 267.2 659.4C265.4 657.2 260 650.3 255.2 644 199.9 571.3 185.5 475.7 216.8 390 242.7 319.1 300.1 259 372.6 226.9 420.2 205.8 474 196.7 525.7 201.1ZM770.8 362C816.9 453.6 807 561.8 744.9 644 716.7 681.3 682.6 709.6 640 730.9 607 747.4 576.4 756.6 538.5 761.7 520.4 764.1 479.5 764.1 461.5 761.7 429.4 757.4 398.2 748.8 372.5 737.1L365.6 733.9 378.7 720.7C385.8 713.4 466.3 630.3 557.5 536 648.7 441.7 730.3 357.4 738.8 348.8L754.4 333.1 758.7 339.8C761.1 343.5 766.5 353.5 770.8 362Z",
        "width": 1000
      },
      "search": [
        "diameter"
      ]
    },
    {
      "uid": "41b49af3299e4cb2ebaf39c43106d072",
      "css": "house",
      "code": 59458,
      "src": "custom_icons",
      "selected": true,
      "svg": {
        "path": "M275.5 53.6C269.7 55.2 264.5 57.4 261 59.8 258 61.8 223.6 95 184.5 133.6 145.5 172.1 103 213.9 90.3 226.4 68.2 248.1 59.8 257.8 57.2 264.5 56.6 266.1 55 272.1 53.6 277.7L51 287.9 51 581.5C51 902.7 50.6 879.8 56.6 898 63.1 917.3 82.7 936.9 102 943.4 120.3 949.4 89.3 949 500 949 910.7 949 879.7 949.4 898 943.4 917.3 936.9 936.9 917.3 943.4 898 949.4 879.8 949 902.7 949 581.5L949 287.9 946.4 277.7C943.1 264.6 942.4 262.6 938.1 256.3 933.8 250 733.4 67.1 723.1 60 717.8 56.3 714.6 55 706.4 53.1 695 50.4 690.8 50.5 678.2 54 672.1 55.6 668.3 57.5 663.6 60.9 660.1 63.4 621.6 100.8 578 143.9L498.8 222.3 494.7 218.3C477.4 201.7 323.2 62.7 318.8 59.7 312.5 55.3 297.8 51 289.5 51.1 286.8 51.1 280.5 52.3 275.5 53.6ZM374.5 253C420 294 461 330.3 465.7 333.7 474.6 340.3 481.4 343 494.2 345.2 499.8 346.2 502.1 346.1 509.1 344.6 521.4 342 526.6 339.7 535.2 333.3 539.4 330.1 576.9 294 618.5 253 660.1 212 694.5 178.5 695.1 178.5 695.6 178.5 729 208.2 769.4 244.5L842.9 310.5 843 576.7 843 843 737.5 843 632 843 632 723.7C632 595.9 632.1 598.7 627 590.5 624.1 585.9 618.7 582.3 611.9 580.4 603.9 578.3 396.1 578.3 388.1 580.4 381.3 582.3 375.9 585.9 373 590.5 367.9 598.7 368 595.9 368 723.7L368 843 262.5 843 157 843 157 576.2 157 309.4 223.8 243.7C260.5 207.6 290.8 178.1 291.2 178.3 291.6 178.4 329.1 212 374.5 253Z",
        "width": 1000
      },
      "search": [
        "house"
      ]
    },
    {
      "uid": "f5b98af68c8c580c3b3155d7eb307531",
      "css": "food",
      "code": 59459,
      "src": "custom_icons",
      "selected": true,
      "svg": {
        "path": "M799.4 94.4C787.5 97.1 773 106.1 753.5 122.8 741.4 133.3 684.9 188.9 666.1 209.1 645.9 230.7 635.3 246.5 627 267.7 614.2 300.3 614.2 333 627.1 362.3 629.3 367.4 631.4 372.2 631.6 373.1 632 374.1 558.5 446.2 399.8 600.4 272 724.6 166.7 827.7 165.8 829.4 163.3 833.7 163.5 841.5 166.5 850.7 170.4 863 175.2 870.2 188.5 883.6 199.3 894.6 201.4 896.2 210 900.4 221.3 906 230.7 908 236.7 906.2 240.2 905.2 268 875.5 463 665 628 486.9 685.8 425.1 686.9 425.6 687.8 425.9 692.7 427.8 697.8 429.6 738.4 444.4 785.8 433 825.8 398.7 833.4 392.2 878.3 345.9 898.3 324 928.9 290.4 944.2 268.2 948.6 250.9 950.7 242.8 950 231.7 947 224 944.7 218.1 936 204.5 934.7 204.8 934.3 204.9 904 234.3 867.5 270.2 831 306 800 336 798.8 336.7 795.7 338.4 788.5 338.3 785.1 336.6 781 334.4 776.2 328.6 775.1 324.2 773.8 319.6 775.1 314.3 778.4 310.3 779.6 308.8 807.3 275.4 839.9 236.1L899.2 164.8 887.9 153.4C881.6 147.1 876.3 142 876 142 875.6 142 843.7 169.7 804.9 203.6 766.2 237.5 733.5 265.8 732.4 266.6 729.6 268.5 723.9 269.4 720.5 268.6 717.3 267.8 710.4 261.6 708.4 257.9 706.6 254.3 706.6 248.9 708.4 244.7 709.2 242.9 738.4 211 773.4 173.6 808.4 136.3 837 105.5 837 105.1 837 104 826.7 98.1 821.4 96 814.4 93.4 806.5 92.8 799.4 94.4ZM123.5 125.7C86.1 130.8 60.6 154.4 52.4 191.5 49.8 203.2 50 228.7 52.8 244 62.5 297.5 95.6 358.7 135.2 396.5 179.8 439 235.6 452.7 281.5 432.3 285.9 430.4 290.2 428.7 291.2 428.6 292.2 428.6 314.3 451.7 347.5 487.5 377.5 519.9 402.5 546.5 403 546.5 403.5 546.5 417 533.9 432.9 518.5L461.9 490.5 456.2 484.9C453.1 481.8 426.5 456 397.2 427.5 367.9 399 344.1 375.4 344.3 375.1 350.1 364.4 355.5 348.7 357.6 336.2 359.8 323.7 359 300.4 356.1 287.9 348.7 255.9 332.4 228.2 305.4 202 265.1 162.8 208.3 133.6 158.5 126.5 149.3 125.1 130.6 124.7 123.5 125.7ZM542.5 631.6C526 649.5 512.5 664.5 512.5 664.9 512.5 665.3 562.4 719.5 623.3 785.3 746.9 918.8 736.2 908.4 748.7 906.3 756 905 768 899.6 775.1 894.4 783.7 888.1 800.1 869.2 804.2 860.9 810.8 847.4 812.7 835.3 809.1 829.5 807.5 826.7 574.9 599.8 573.2 599.3 572.8 599.2 559 613.7 542.5 631.6Z",
        "width": 1000
      },
      "search": [
        "food"
      ]
    },
    {
      "uid": "62cd9ac36307d8bcac22500ce88b643e",
      "css": "wallet",
      "code": 59460,
      "src": "custom_icons",
      "selected": true,
      "svg": {
        "path": "M430.5 123.5C281.5 151.3 155.5 174.7 150.5 175.6 125.7 180.1 98.7 193.1 80.6 209.2 67.8 220.5 57.3 237 52.8 252.6L50.5 260.5 50.5 544.5 50.5 828.5 52.8 836.5C58.2 855.4 70.4 874.4 87.8 891.1 103.6 906.3 122.7 917.7 141.5 923.2L149.5 925.5 513.5 925.8C917.5 926.1 885.8 926.6 900.5 919.5 926.6 906.9 944.6 875.3 949 834.5 949.8 826.4 950 763.1 949.8 594L949.5 364.5 947.3 356.5C939 327 920.5 312.1 887 308 882.4 307.5 859.5 307 836.3 307L794 307 794 234.2C794 156.7 793.8 152.2 788.9 136.4 777.5 99.3 747.6 75.3 710.5 73.5 701.9 73.1 688.3 75.5 430.5 123.5ZM707.5 141.1C712.7 142.5 720.1 150.1 722.6 156.6 724.4 161.2 724.5 165.8 724.8 234.2L725.1 307 442 307 159 307 145.8 304.4C138.5 303 129.6 301.5 126 301.2L119.5 300.5 119.2 286.1C119 273.1 119.1 271.3 121.1 267.3 125.2 258.8 141.5 249 160.8 243.4 168.9 241.1 696.1 140.4 701.5 140.1 702.6 140.1 705.3 140.5 707.5 141.1ZM880.5 449.5L880.5 524.5 500 524.5 119.5 524.5 119.2 454.1C119 389.3 119.1 383.5 120.7 381.8 122.9 379.4 133.5 376.2 143 375.1 147.1 374.6 314.8 374.3 515.5 374.4L880.5 374.5 880.5 449.5ZM880.8 705.5C881 777.3 880.7 823.8 880 831 878.9 843.6 876.9 852 873.8 856.2L871.9 859 516.1 859 160.3 859 152.9 855.3C147.1 852.5 143.3 849.4 135.5 841.6 129.8 835.8 124.2 829.1 122.5 826L119.5 820.5 119.2 707C119.1 644.6 119.2 593 119.5 592.3 119.8 591.2 194.1 591 500.2 591.2L880.5 591.5 880.8 705.5Z",
        "width": 1000
      },
      "search": [
        "wallet"
      ]
    },
    {
      "uid": "9b0a1e33c30a68d99d7cc10c18bdbccd",
      "css": "play",
      "code": 59461,
      "src": "custom_icons",
      "selected": true,
      "svg": {
        "path": "M460 51.2C312.4 64.9 182.7 148.5 108.8 277.2 80.2 327 61 384.7 53.6 442.5 48 486 49.1 532.6 56.6 577 67.6 642.4 96.2 710.1 135.7 764.1 208.3 863.8 317.2 929.2 438 945.9 462.8 949.3 482.1 950.3 510.3 949.7 537.5 949.1 553.4 947.7 578 943.4 658.2 929.7 735.2 892.8 797 838.4 841.9 798.9 877.7 752.2 904.1 698.6 929.5 647.2 944.2 593.9 949.1 536.3 950.9 515 949.8 462.8 947.1 443.3 930.9 324.1 873 221.4 780.3 147.3 712.7 93.3 629.6 59.8 543.1 51.6 525 49.8 476.6 49.6 460 51.2ZM549.5 116.9C651.6 130.8 739 180.4 803.7 261.2 812.4 272.1 829.5 297.6 836.9 310.7 860.8 353 876.3 400 883.1 450.5 885.7 470.1 886.7 508.2 885.1 528.5 878.8 607.8 850.7 679.4 801.8 740.8 789.2 756.5 757.3 788.6 742.5 800.4 698.2 835.6 649.7 860 597.2 873.6 563.7 882.2 537.5 885.4 500 885.4 462.9 885.4 439.2 882.5 404.9 873.9 296.3 846.7 202.7 770.6 153.5 669.5 132.7 626.9 121.2 585.8 115.8 536 114 519.1 114.3 477.7 116.4 459.2 125.9 372.2 162.5 294 222.5 232.1 289 163.5 372.2 123.8 468 115 484.7 113.5 532.5 114.6 549.5 116.9ZM430.1 508L430.1 801.5 436.3 795C486.4 742.3 706.5 508.6 706.5 508 706.5 507.6 647.1 444.3 574.5 367.5 501.9 290.6 439.7 224.7 436.3 221.1L430.1 214.5 430.1 508Z",
        "width": 1000
      },
      "search": [
        "play"
      ]
    },
    {
      "uid": "16bdf7c040390d3379aa787bea8f4fce",
      "css": "download",
      "code": 59462,
      "src": "custom_icons",
      "selected": true,
      "svg": {
        "path": "M487 51.9C480 54.1 477.7 55.4 471.3 60.2 465.4 64.7 459.3 73.2 455.8 81.8L453.5 87.5 453 358.1 452.5 628.6 408.5 583.3C330.3 502.8 334 506.4 328 503.4 308.7 493.8 286.8 497 272.3 511.6 262 521.9 256.7 538.3 258.9 553.2 260.9 566.3 265.2 573.3 282 590.5 290.1 598.7 335.3 645.3 382.5 694 429.7 742.7 470.5 784.2 473.2 786.2 482.8 793.5 498.3 796.8 510.1 794 521.2 791.4 526.6 787.7 540.9 773.2 599.3 713.6 730.9 577.2 733.6 573.5 746.6 555.2 743.9 527.8 727.6 511.4 717.6 501.5 706.4 497.4 691.6 498.2 682 498.8 674 501.6 667.2 506.8 664.5 508.8 636.8 536.8 605.7 569 574.5 601.2 548.5 627.6 548 627.8 547.3 628 547 533.8 547 359.2 547 93.7 547 90.1 545 83.8 540.1 67.8 527.5 55.6 511.5 51.4 504.6 49.5 493.6 49.8 487 51.9ZM189.5 858.4C166 865.9 152.1 889.4 157.1 913.2 160.6 929.6 172.1 942.6 187.8 947.9L193.9 950 499.9 950C797.3 950 806 949.9 811.9 948.1 832.3 941.8 845.2 922.5 843.8 900.4 842.6 882.4 831.3 866.3 815 859.7L809.5 857.5 501.5 857.3C254.4 857.2 192.7 857.4 189.5 858.4Z",
        "width": 1000
      },
      "search": [
        "download"
      ]
    },
    {
      "uid": "b419e50ac4ae4a48d9be99fd40697ccd",
      "css": "arr-down",
      "code": 59463,
      "src": "custom_icons",
      "selected": true,
      "svg": {
        "path": "M72.9 150.4C58.6 154.2 49.8 165.4 49.8 179.7 49.7 192.9 32 175.1 272.3 402.2 391.8 515.1 491.8 609.6 494.5 612.2L499.6 616.9 713.5 414.9C831.2 303.8 931.9 208.5 937.2 203.1 945.7 194.5 947.1 192.6 948.6 187.5 956.1 161.4 926 139.6 901.8 153.8 899.3 155.3 807.8 241 698.5 344.3L499.7 532.1 496.9 529.8C495.4 528.5 405.7 443.9 297.6 341.6 189.6 239.4 99.7 154.9 98 153.9 94.2 151.6 84.8 149 80.5 149.1 78.9 149.1 75.4 149.7 72.9 150.4ZM70.9 383.3C50.5 390.9 43.2 413.3 55.8 429.3 60.3 434.9 498 848.5 499.5 848.5 500 848.5 600.3 754.3 722.2 639.1 969.2 405.9 949.5 425.7 949.5 411.5 949.5 403.2 947 397.2 940.9 391.2 934.4 384.6 929 382.6 918.5 382.5 910.8 382.5 908.7 382.9 904 385.1 899.5 387.3 862.2 422 699 576.3L499.5 764.9 494.5 760.1C491.8 757.4 402 672.6 295.1 571.6 151.8 436.1 99.4 387.2 95.6 385.3 89.4 382.1 76.8 381.1 70.9 383.3Z",
        "width": 1000
      },
      "search": [
        "arr-down-(1)"
      ]
    },
    {
      "uid": "0a4b651f7cc6710aaacd99937f7fce1c",
      "css": "arr-up",
      "code": 59464,
      "src": "custom_icons",
      "selected": true,
      "svg": {
        "path": "M277.6 360C156.1 475 55.6 570.5 54.3 572.4 46.6 583.8 48.6 600 58.9 609.3 66.3 616 70.3 617.5 81 617.5 89.4 617.5 91.1 617.2 95.6 614.8 99.3 612.9 155.8 560 295.1 428.4 402 327.4 491.8 242.6 494.5 239.9L499.5 235.1 699 423.7C862.2 578 899.5 612.7 904 614.9 908.7 617.1 910.8 617.5 918.5 617.5 929 617.4 934.4 615.4 940.9 608.8 947 602.8 949.5 596.8 949.5 588.5 949.5 574.3 969.2 594.1 722.3 360.9 600.3 245.7 500.1 151.4 499.5 151.3 499 151.2 399.1 245.1 277.6 360ZM277.3 593C31.5 825.4 49.7 807.1 49.8 820.3 49.8 832.2 55.5 841.6 66 846.9 73.9 850.8 80.9 851.6 88.7 849.6 92.1 848.8 96.2 847.2 98 846.2 99.7 845.1 189.6 760.6 297.6 658.4 405.7 556.1 495.4 471.5 496.9 470.2L499.7 467.9 698.5 655.7C807.8 759 899.3 844.7 901.8 846.2 918.1 855.8 939.7 849.1 947.2 832.4 951.5 822.6 950.2 811.3 943.8 803.5 942 801.3 843.3 707.8 724.5 595.6 605.7 483.5 506.5 389.8 504 387.4L499.5 383 277.3 593Z",
        "width": 1000
      },
      "search": [
        "arr-up-(1)"
      ]
    },
    {
      "uid": "474656633f79ea2f1dad59ff63f6bf07",
      "css": "star",
      "code": 59399,
      "src": "fontawesome"
    },
    {
      "uid": "d17030afaecc1e1c22349b99f3c4992a",
      "css": "star-empty",
      "code": 59400,
      "src": "fontawesome"
    },
    {
      "uid": "8f8278fbe5a2a0ea836be3c408b005d2",
      "css": "star-half",
      "code": 59401,
      "src": "fontawesome"
    },
    {
      "uid": "84cf1fcc3fec556e7eaeb19679ca2dc9",
      "css": "star-half-alt",
      "code": 59402,
      "src": "fontawesome"
    },
    {
      "uid": "9daa1fdf0838118518a7e22715e83abc",
      "css": "file-pdf",
      "code": 59449,
      "src": "fontawesome"
    },
    {
      "uid": "310ffd629da85142bc8669f010556f2d",
      "css": "file-word",
      "code": 59448,
      "src": "fontawesome"
    },
    {
      "uid": "f761c3bbe16ba2d332914ecb28e7a042",
      "css": "file-excel",
      "code": 59450,
      "src": "fontawesome"
    },
    {
      "uid": "edcd4022de8d8df266ef7c42d2658ca5",
      "css": "file-powerpoint",
      "code": 59451,
      "src": "fontawesome"
    },
    {
      "uid": "3c961c1a8d874815856fc6637dc5a13c",
      "css": "file-image",
      "code": 59452,
      "src": "fontawesome"
    },
    {
      "uid": "e80ae555c1413a4ec18b33fb348b4049",
      "css": "file-archive",
      "code": 59453,
      "src": "fontawesome"
    },
    {
      "uid": "81db033e704eb7c586a365559d7c0f36",
      "css": "file-audio",
      "code": 59454,
      "src": "fontawesome"
    },
    {
      "uid": "dd69d9aa589ea7bc0a82a3fe67039f4b",
      "css": "file-video",
      "code": 59455,
      "src": "fontawesome"
    },
    {
      "uid": "26613a2e6bc41593c54bead46f8c8ee3",
      "css": "file-code",
      "code": 59456,
      "src": "fontawesome"
    },
    {
      "uid": "2d6150442079cbda7df64522dc24f482",
      "css": "down-dir",
      "code": 59436,
      "src": "fontawesome"
    },
    {
      "uid": "80cd1022bd9ea151d554bec1fa05f2de",
      "css": "up-dir",
      "code": 59435,
      "src": "fontawesome"
    },
    {
      "uid": "9dc654095085167524602c9acc0c5570",
      "css": "left-dir",
      "code": 59434,
      "src": "fontawesome"
    },
    {
      "uid": "fb1c799ffe5bf8fb7f8bcb647c8fe9e6",
      "css": "right-dir",
      "code": 59433,
      "src": "fontawesome"
    },
    {
      "uid": "ccddff8e8670dcd130e3cb55fdfc2fd0",
      "css": "down-open",
      "code": 59419,
      "src": "fontawesome"
    },
    {
      "uid": "d870630ff8f81e6de3958ecaeac532f2",
      "css": "left-open",
      "code": 59420,
      "src": "fontawesome"
    },
    {
      "uid": "399ef63b1e23ab1b761dfbb5591fa4da",
      "css": "right-open",
      "code": 59421,
      "src": "fontawesome"
    },
    {
      "uid": "fe6697b391355dec12f3d86d6d490397",
      "css": "up-open",
      "code": 59422,
      "src": "fontawesome"
    },
    {
      "uid": "8e04c98c8f5ca0a035776e3001ad2638",
      "css": "facebook",
      "code": 59424,
      "src": "fontawesome"
    },
    {
      "uid": "b8d0c7d76e87b94882329a88e8e43d3d",
      "css": "gplus",
      "code": 59428,
      "src": "fontawesome"
    },
    {
      "uid": "627abcdb627cb1789e009c08e2678ef9",
      "css": "twitter",
      "code": 59427,
      "src": "fontawesome"
    },
    {
      "uid": "289b5f92f23acf1059c93fbf401c1ad5",
      "css": "down-open-big",
      "code": 59438,
      "src": "entypo"
    },
    {
      "uid": "884cfc3e6e2d456dd2a2ca0dbb9e6337",
      "css": "left-open-big",
      "code": 59439,
      "src": "entypo"
    },
    {
      "uid": "004882ab2d5c418c5b2060e80596279b",
      "css": "right-open-big",
      "code": 59440,
      "src": "entypo"
    },
    {
      "uid": "0805cca616b3c12714f35af4d0912c10",
      "css": "up-open-big",
      "code": 59441,
      "src": "entypo"
    },
    {
      "uid": "b90868gfogj970a1g0dnot6hm5r4uj55",
      "css": "comment",
      "code": 59423,
      "src": "typicons"
    },
    {
      "uid": "dbd39eb5a1d67beb54cfcb535e840e0f",
      "css": "plus",
      "code": 59443,
      "src": "iconic"
    },
    {
      "uid": "661bd5ba1dad15ad9acbfcd8b8af76f3",
      "css": "quote-left",
      "code": 59409,
      "src": "iconic"
    },
    {
      "uid": "bc0af4824c8eedcad7bc0d35911dac2a",
      "css": "quote-right",
      "code": 59408,
      "src": "iconic"
    },
    {
      "uid": "8f25d96c5665c84e4403538eef14ec2c",
      "css": "info-circled",
      "code": 59444,
      "src": "mfglabs"
    },
    {
      "uid": "b6ef4443ecc502136135437837d9724b",
      "css": "mail",
      "code": 59411,
      "src": "elusive"
    },
    {
      "uid": "7cb7e246fd23672429db603c0077dc79",
      "css": "mail-circled",
      "code": 59396,
      "src": "elusive"
    },
    {
      "uid": "c54c00a5b7fba94b9fbc940de38a7beb",
      "css": "location-circled",
      "code": 59395,
      "src": "elusive"
    },
    {
      "uid": "c91098f07ff0df45b3f8666b72b75801",
      "css": "phone",
      "code": 59410,
      "src": "elusive"
    },
    {
      "uid": "23a1de57eb7b0c8281656a3ddadf3ee3",
      "css": "phone-circled",
      "code": 59397,
      "src": "elusive"
    },
    {
      "uid": "a79ef2d6f102af86440aa80238d5f4b0",
      "css": "down",
      "code": 59407,
      "src": "elusive"
    },
    {
      "uid": "1b2ef17b42012a1e46743f9be8384f83",
      "css": "left",
      "code": 59404,
      "src": "elusive"
    },
    {
      "uid": "23012c4e68769e1f133bba1f93a734d1",
      "css": "right",
      "code": 59405,
      "src": "elusive"
    },
    {
      "uid": "cbb11c546600a92fde108476faf5d337",
      "css": "up",
      "code": 59406,
      "src": "elusive"
    },
    {
      "uid": "7acc2dfe18c6f4548626696fab27ba8a",
      "css": "play-circled2",
      "code": 59442,
      "src": "elusive"
    },
    {
      "uid": "501f33ed61da407feb057a7699ef93f7",
      "css": "clock",
      "code": 59437,
      "src": "websymbols"
    },
    {
      "uid": "ebbe0cc0600cb69375abc20af545967f",
      "css": "facebook-rect",
      "code": 59414,
      "src": "websymbols"
    },
    {
      "uid": "a4765de460cc6485b1ca5b36222f41d5",
      "css": "twitter-bird",
      "code": 59415,
      "src": "websymbols"
    },
    {
      "uid": "0e5740f288f6f5cb04eef63f7f0a1506",
      "css": "googleplus-rect",
      "code": 59416,
      "src": "websymbols"
    },
    {
      "uid": "8870252f5da59a63564fb6790a347c8e",
      "css": "linkedin-rect",
      "code": 59417,
      "src": "websymbols"
    },
    {
      "uid": "a25ef3626c7bd7031709a8264f280bfe",
      "css": "skype",
      "code": 59418,
      "src": "websymbols"
    }
  ]
}